ru\shop\controller\MainController.class
ru\shop\model\Category.class
ru\shop\model\Good.class
ru\shop\model\User.class
ru\shop\dao\CategoryDAOImpl$3.class
ru\shop\model\Order.class
ru\shop\dao\CategoryDAOImpl$2.class
ru\shop\dao\CategoryDAOImpl.class
ru\shop\dao\CategoryDAO.class
ru\shop\dao\CategoryDAOImpl$1.class
